{
  "docs": [
    {
      "task_id": "62a9acb1f0a44300173f6ee8",
      "created_at": "2022-06-15T09:56:01.561Z",
      "type": "annotation",
      "status": "canceled",
      "instruction": "Draw a box around each object.",
      "params": {
        "attachment": "https://observesign.s3-us-west-2.amazonaws.com/traffic_sign_7.jpg",
        "attachment_type": "image",
        "objects_to_annotate": [
          "traffic_control_sign",
          "construction_sign",
          "information_sign",
          "policy_sign",
          "non_visible_face"
        ],
        "with_labels": true,
        "min_width": 0,
        "min_height": 0,
        "examples": []
      },
      "is_test": false,
      "urgency": "standard",
      "metadata": {},
      "processed_attachments": [],
      "project": "Traffic Sign Detection",
      "priority": 10,
      "postProcessingResults": {},
      "callback_url": "http://www.example.com/callback",
      "project_param_version": 0,
      "projectId": "5f124e5671c7b700170a16fb",
      "updated_at": "2025-03-10T05:34:46.000Z",
      "work_started": false,
      "isProcessed": false
    },
    {
      "task_id": "62a9ac81d8c5650023aa7053",
      "created_at": "2022-06-15T09:55:13.956Z",
      "type": "annotation",
      "status": "canceled",
      "instruction": "Draw a box around each object.",
      "params": {
        "attachment": "https://observesign.s3-us-west-2.amazonaws.com/traffic_sign_7.jpg",
        "attachment_type": "image",
        "objects_to_annotate": [
          "traffic_control_sign",
          "construction_sign",
          "information_sign",
          "policy_sign",
          "non_visible_face"
        ],
        "with_labels": true,
        "min_width": 0,
        "min_height": 0,
        "examples": []
      },
      "is_test": false,
      "urgency": "standard",
      "metadata": {},
      "processed_attachments": [],
      "project": "Traffic Sign Detection",
      "priority": 10,
      "postProcessingResults": {},
      "callback_url": "http://www.example.com/callback",
      "unique_id": "rwsg4sfdvx",
      "project_param_version": 0,
      "projectId": "5f124e5671c7b700170a16fb",
      "updated_at": "2025-02-21T15:45:58.564Z",
      "work_started": false,
      "isProcessed": false
    },
    {
      "task_id": "5f127f6f26831d0010e985e5",
      "created_at": "2020-07-18T04:49:51.129Z",
      "completed_at": "2020-07-18T05:03:26.917Z",
      "type": "annotation",
      "status": "completed",
      "instruction": "Draw a tight box around each object.",
      "params": {
        "attachment": "https://observesign.s3-us-west-2.amazonaws.com/traffic_sign_1.jpg",
        "attachment_type": "image",
        "objects_to_annotate": [
          "traffic_control_sign",
          "construction_sign",
          "information_sign",
          "policy_sign",
          "non_visible_face"
        ],
        "with_labels": true,
        "min_width": 0,
        "min_height": 0,
        "examples": [],
        "annotation_attributes": {
          "occlusion": {
            "description": "What percent of the object is occluded?",
            "choices": [
              "0%",
              "25%",
              "50%",
              "75%",
              "100%"
            ]
          },
          "truncation": {
            "description": "What percent of the object is truncated?",
            "choices": [
              "0%",
              "25%",
              "50%",
              "75%",
              "100%"
            ]
          },
          "background_color": {
            "description": "What color is the background of the sign?",
            "choices": [
              "white",
              "red",
              "orange",
              "yellow",
              "green",
              "blue",
              "other",
              "not_applicable"
            ]
          }
        }
      },
      "is_test": false,
      "urgency": "standard",
      "metadata": {},
      "processed_attachments": [],
      "project": "Traffic Sign Detection",
      "priority": 0,
      "postProcessingResults": {},
      "customer_review_status": "accepted",
      "customer_review_comments": [
        "",
        "",
        "",
        ""
      ],
      "callback_url": "https://example.com/callback",
      "response": {
        "annotations": [
          {
            "label": "policy_sign",
            "attributes": {
              "occlusion": "0%",
              "truncation": "0%",
              "background_color": "white"
            },
            "uuid": "50fde071-d81d-4a21-8315-e831d5263b8f",
            "width": 12,
            "height": 17,
            "geometry": "box",
            "left": 1173,
            "top": 460
          },
          {
            "label": "information_sign",
            "attributes": {
              "occlusion": "0%",
              "truncation": "0%",
              "background_color": "green"
            },
            "uuid": "c436c3c5-fb04-43b9-9679-30e0345c0837",
            "width": 95,
            "height": 54,
            "geometry": "box",
            "left": 893,
            "top": 316
          },
          {
            "label": "information_sign",
            "attributes": {
              "occlusion": "0%",
              "truncation": "0%",
              "background_color": "green"
            },
            "uuid": "0e8ce7a9-d203-4618-99be-8a63a10514e0",
            "width": 114,
            "height": 100,
            "geometry": "box",
            "left": 690,
            "top": 294
          },
          {
            "label": "traffic_control_sign",
            "attributes": {
              "occlusion": "0%",
              "truncation": "0%",
              "background_color": "yellow"
            },
            "uuid": "ada7893a-3ee1-4d69-b06b-87240a9522cd",
            "width": 15,
            "height": 14,
            "geometry": "box",
            "left": 874,
            "top": 446
          },
          {
            "label": "information_sign",
            "attributes": {
              "occlusion": "0%",
              "truncation": "0%",
              "background_color": "green"
            },
            "uuid": "2deb7dd7-cf6d-4080-8a29-cdc085541b49",
            "width": 11,
            "height": 7,
            "geometry": "box",
            "left": 748,
            "top": 428
          },
          {
            "label": "information_sign",
            "attributes": {
              "occlusion": "25%",
              "truncation": "0%",
              "background_color": "green"
            },
            "uuid": "1e418b05-398c-42a2-95b5-b88da7f9a145",
            "width": 11,
            "height": 9,
            "geometry": "box",
            "left": 728,
            "top": 425
          },
          {
            "label": "information_sign",
            "attributes": {
              "occlusion": "50%",
              "truncation": "0%",
              "background_color": "green"
            },
            "uuid": "89e6b03e-1e6c-4ca3-9bc5-2660c1ddd768",
            "width": 34,
            "height": 13,
            "geometry": "box",
            "left": 659,
            "top": 435
          },
          {
            "label": "information_sign",
            "attributes": {
              "occlusion": "0%",
              "truncation": "0%",
              "background_color": "yellow"
            },
            "uuid": "df8c17ab-5055-480f-a75b-70561997b60b",
            "width": 44,
            "height": 41,
            "geometry": "box",
            "left": 651,
            "top": 440
          },
          {
            "label": "information_sign",
            "attributes": {
              "occlusion": "0%",
              "truncation": "0%",
              "background_color": "green"
            },
            "uuid": "78878895-cd3d-41ee-a980-f113f189fe6a",
            "width": 37,
            "height": 15,
            "geometry": "box",
            "left": 612,
            "top": 436
          },
          {
            "label": "non_visible_face",
            "attributes": {
              "occlusion": "25%",
              "truncation": "0%",
              "background_color": "not_applicable"
            },
            "uuid": "5d0f3488-135c-4757-b121-43cce10726c8",
            "width": 29,
            "height": 22,
            "geometry": "box",
            "left": 574,
            "top": 429
          },
          {
            "label": "non_visible_face",
            "attributes": {
              "occlusion": "25%",
              "truncation": "0%",
              "background_color": "not_applicable"
            },
            "uuid": "1076a071-ba89-4bf5-8249-aa5e641992e4",
            "width": 9,
            "height": 11,
            "geometry": "box",
            "left": 381,
            "top": 408
          },
          {
            "label": "non_visible_face",
            "attributes": {
              "occlusion": "25%",
              "background_color": "not_applicable",
              "truncation": "0%"
            },
            "uuid": "a9cc3478-b9f9-480b-bd32-cbb9c4e10af6",
            "width": 9,
            "height": 9,
            "geometry": "box",
            "left": 429,
            "top": 415
          },
          {
            "label": "non_visible_face",
            "attributes": {
              "occlusion": "50%",
              "truncation": "0%",
              "background_color": "not_applicable"
            },
            "uuid": "1b048402-5527-4b89-8a76-09fbe61735a0",
            "width": 21,
            "height": 13,
            "geometry": "box",
            "left": 452,
            "top": 411
          }
        ],
        "global_attributes": {},
        "is_customer_fix": false
      },
      "customer_reviewed_by": "fieldengineering+observesign@scale.com",
      "customer_audit_time_secs": 91.088,
      "customer_audit_active_time_secs": 85.087,
      "customer_audited_at": "2021-10-13T05:59:06.682Z",
      "audits": [
        {
          "audited_by": "fieldengineering+observesign@scale.com",
          "audited_at": "2021-10-13T05:59:06.682Z",
          "audit_time_secs": 91.088,
          "audit_active_time_secs": 85.087,
          "audit_result": "accepted",
          "audit_source": "customer"
        },
        {
          "audited_by": "fieldengineering+observesign@scale.com",
          "audited_at": "2021-09-13T15:20:05.164Z",
          "audit_time_secs": 10.517,
          "audit_active_time_secs": 10.517,
          "audit_result": "accepted",
          "audit_source": "customer"
        },
        {
          "audited_by": "fieldengineering+observesign@scale.com",
          "audited_at": "2020-11-11T04:48:29.551Z",
          "audit_time_secs": 93.192,
          "audit_result": "accepted",
          "audit_source": "customer"
        },
        {
          "audited_by": "fieldengineering+observesign@scale.com",
          "audited_at": "2020-11-09T23:20:44.665Z",
          "audit_time_secs": 22.009,
          "audit_result": "accepted",
          "audit_source": "customer"
        }
      ],
      "projectId": "5f124e5671c7b700170a16fb",
      "updated_at": "2025-03-10T06:40:45.881Z",
      "work_started": true,
      "isProcessed": false
    },
    {
      "task_id": "5f127f6c3a6b1000172320ad",
      "created_at": "2020-07-18T04:49:48.480Z",
      "completed_at": "2020-07-18T05:18:52.138Z",
      "type": "annotation",
      "status": "completed",
      "instruction": "Draw a tight box around each object.",
      "params": {
        "attachment": "https://observesign.s3-us-west-2.amazonaws.com/traffic_sign_2.jpg",
        "attachment_type": "image",
        "objects_to_annotate": [
          "traffic_control_sign",
          "construction_sign",
          "information_sign",
          "policy_sign",
          "non_visible_face"
        ],
        "with_labels": true,
        "min_width": 0,
        "min_height": 0,
        "examples": [],
        "annotation_attributes": {
          "occlusion": {
            "description": "What percent of the object is occluded?",
            "choices": [
              "0%",
              "25%",
              "50%",
              "75%",
              "100%"
            ]
          },
          "truncation": {
            "description": "What percent of the object is truncated?",
            "choices": [
              "0%",
              "25%",
              "50%",
              "75%",
              "100%"
            ]
          },
          "background_color": {
            "description": "What color is the background of the sign?",
            "choices": [
              "white",
              "red",
              "orange",
              "yellow",
              "green",
              "blue",
              "other",
              "not_applicable"
            ]
          }
        }
      },
      "is_test": false,
      "urgency": "standard",
      "metadata": {},
      "processed_attachments": [],
      "project": "Traffic Sign Detection",
      "priority": 0,
      "postProcessingResults": {},
      "customer_review_status": "rejected",
      "customer_review_comments": [
        "",
        "Difference between labeling \"traffic_control_sign\" and \"non_visible_face\". Although I cannot see the face, I can tell its a \"traffic_control_sign\". How should I label? Probably just need be consistent."
      ],
      "callback_url": "https://example.com/callback",
      "response": {
        "annotations": [
          {
            "label": "non_visible_face",
            "attributes": {
              "occlusion": "0%",
              "truncation": "0%",
              "background_color": "not_applicable"
            },
            "uuid": "0565b84a-8a1b-4486-ad36-fef148894b03",
            "width": 14,
            "height": 40,
            "geometry": "box",
            "left": 559,
            "top": 503
          },
          {
            "label": "traffic_control_sign",
            "attributes": {
              "occlusion": "25%",
              "truncation": "0%",
              "background_color": "other"
            },
            "uuid": "839ffc1f-b6cc-4d31-8524-dbb3d8fde3ee",
            "width": 29,
            "height": 28,
            "geometry": "box",
            "left": 546,
            "top": 581
          },
          {
            "label": "traffic_control_sign",
            "attributes": {
              "occlusion": "0%",
              "truncation": "0%",
              "background_color": "other"
            },
            "uuid": "4972bf86-e345-4a0f-8bb5-9d2a86569b3e",
            "width": 12,
            "height": 32,
            "geometry": "box",
            "left": 734,
            "top": 619
          },
          {
            "label": "traffic_control_sign",
            "attributes": {
              "occlusion": "0%",
              "truncation": "0%",
              "background_color": "not_applicable"
            },
            "uuid": "8f9e0df3-7534-46ab-b7b4-dbae311c88cd",
            "width": 13,
            "height": 16,
            "geometry": "box",
            "left": 718,
            "top": 664
          },
          {
            "label": "traffic_control_sign",
            "attributes": {
              "occlusion": "0%",
              "truncation": "0%",
              "background_color": "not_applicable"
            },
            "uuid": "dda85426-ba5f-4910-b92b-e50fc0bfb793",
            "width": 7,
            "height": 10,
            "geometry": "box",
            "left": 914,
            "top": 672
          },
          {
            "label": "information_sign",
            "attributes": {
              "occlusion": "0%",
              "truncation": "0%",
              "background_color": "green"
            },
            "uuid": "c8dd26d1-8cc5-4d96-8012-23b744871fcc",
            "width": 14,
            "height": 5,
            "geometry": "box",
            "left": 945,
            "top": 681
          },
          {
            "label": "traffic_control_sign",
            "attributes": {
              "occlusion": "0%",
              "truncation": "75%",
              "background_color": "not_applicable"
            },
            "uuid": "0bc2ab2c-16b0-461e-8866-08f3bdc87238",
            "width": 16,
            "height": 39,
            "geometry": "box",
            "left": 1151,
            "top": 542
          },
          {
            "label": "information_sign",
            "attributes": {
              "occlusion": "0%",
              "truncation": "0%",
              "background_color": "green"
            },
            "uuid": "2d60d1ad-81fa-4135-afb1-9f43fc6f4a13",
            "width": 48,
            "height": 15,
            "geometry": "box",
            "left": 1185,
            "top": 572
          },
          {
            "label": "policy_sign",
            "attributes": {
              "occlusion": "0%",
              "truncation": "0%",
              "background_color": "not_applicable"
            },
            "uuid": "fd7a83ed-cbcc-4b98-8746-98c7551cb4a2",
            "width": 33,
            "height": 12,
            "geometry": "box",
            "left": 1318,
            "top": 685
          },
          {
            "label": "information_sign",
            "attributes": {
              "occlusion": "0%",
              "truncation": "0%",
              "background_color": "white"
            },
            "uuid": "ec2b36f3-75d1-42fe-adea-000dd0064e76",
            "width": 15,
            "height": 11,
            "geometry": "box",
            "left": 1291,
            "top": 677
          },
          {
            "label": "traffic_control_sign",
            "attributes": {
              "occlusion": "0%",
              "truncation": "0%",
              "background_color": "other"
            },
            "uuid": "c1feef88-40a5-4275-b631-8cdbd554cb08",
            "width": 11,
            "height": 29,
            "geometry": "box",
            "left": 1328,
            "top": 654
          },
          {
            "label": "non_visible_face",
            "attributes": {
              "occlusion": "0%",
              "truncation": "0%",
              "background_color": "not_applicable"
            },
            "uuid": "e0294801-e987-4549-9bea-23d5b9a8622b",
            "width": 19,
            "height": 23,
            "geometry": "box",
            "left": 1771,
            "top": 649
          },
          {
            "label": "traffic_control_sign",
            "attributes": {
              "occlusion": "0%",
              "truncation": "0%",
              "background_color": "other"
            },
            "uuid": "665c4b67-3600-4523-b780-340e55adcad4",
            "width": 19,
            "height": 24,
            "geometry": "box",
            "left": 1742,
            "top": 647
          },
          {
            "label": "policy_sign",
            "attributes": {
              "occlusion": "0%",
              "truncation": "0%",
              "background_color": "white"
            },
            "uuid": "5da3cb2e-5cf3-4919-9511-bccbbbaf163d",
            "width": 32,
            "height": 46,
            "geometry": "box",
            "left": 1748,
            "top": 532
          }
        ],
        "global_attributes": {},
        "is_customer_fix": false
      },
      "customer_reviewed_by": "fieldengineering+observesign@scale.com",
      "customer_audit_time_secs": 1089.49,
      "customer_audited_at": "2020-12-08T18:12:46.313Z",
      "audits": [
        {
          "audited_by": "fieldengineering+observesign@scale.com",
          "audited_at": "2020-12-08T18:12:46.313Z",
          "audit_time_secs": 1089.49,
          "audit_result": "rejected",
          "audit_source": "customer"
        },
        {
          "audited_by": "fieldengineering+observesign@scale.com",
          "audited_at": "2020-10-15T16:22:53.006Z",
          "audit_time_secs": 76.604,
          "audit_result": "accepted",
          "audit_source": "customer"
        }
      ],
      "projectId": "5f124e5671c7b700170a16fb",
      "updated_at": "2025-03-05T02:36:48.287Z",
      "work_started": true,
      "isProcessed": false
    },
    {
      "task_id": "5f127f699740b80017f9b170",
      "created_at": "2020-07-18T04:49:45.731Z",
      "completed_at": "2020-07-18T05:22:44.489Z",
      "type": "annotation",
      "status": "completed",
      "instruction": "Draw a tight box around each object.",
      "params": {
        "attachment": "https://observesign.s3-us-west-2.amazonaws.com/traffic_sign_3.jpg",
        "attachment_type": "image",
        "objects_to_annotate": [
          "traffic_control_sign",
          "construction_sign",
          "information_sign",
          "policy_sign",
          "non_visible_face"
        ],
        "with_labels": true,
        "min_width": 0,
        "min_height": 0,
        "examples": [],
        "annotation_attributes": {
          "occlusion": {
            "description": "What percent of the object is occluded?",
            "choices": [
              "0%",
              "25%",
              "50%",
              "75%",
              "100%"
            ]
          },
          "truncation": {
            "description": "What percent of the object is truncated?",
            "choices": [
              "0%",
              "25%",
              "50%",
              "75%",
              "100%"
            ]
          },
          "background_color": {
            "description": "What color is the background of the sign?",
            "choices": [
              "white",
              "red",
              "orange",
              "yellow",
              "green",
              "blue",
              "other",
              "not_applicable"
            ]
          }
        }
      },
      "is_test": false,
      "urgency": "standard",
      "metadata": {},
      "processed_attachments": [],
      "project": "Traffic Sign Detection",
      "priority": 0,
      "postProcessingResults": {},
      "customer_review_status": "rejected",
      "customer_review_comments": [
        "All the traffic control signs are mis-labeled. These are not traffic signs in general.",
        "Boxes not placed correctly. There are no traffic control signs visible. "
      ],
      "callback_url": "https://example.com/callback",
      "response": {
        "annotations": [
          {
            "label": "policy_sign",
            "attributes": {
              "occlusion": "0%",
              "truncation": "0%",
              "background_color": "white"
            },
            "uuid": "49a40bd1-788b-4741-b20f-10577c13f6c3",
            "width": 54,
            "height": 58,
            "geometry": "box",
            "left": 1441,
            "top": 565
          },
          {
            "label": "policy_sign",
            "attributes": {
              "occlusion": "0%",
              "truncation": "0%",
              "background_color": "white"
            },
            "uuid": "fdae05b8-a506-4a8f-9e5b-44006f24b1f7",
            "width": 54,
            "height": 72,
            "geometry": "box",
            "left": 1439,
            "top": 627
          },
          {
            "label": "traffic_control_sign",
            "attributes": {
              "occlusion": "0%",
              "truncation": "0%",
              "background_color": "red"
            },
            "uuid": "da493933-bb23-4179-a3ce-16c2b8b14d8c",
            "width": 29,
            "height": 41,
            "geometry": "box",
            "left": 374,
            "top": 589
          },
          {
            "label": "traffic_control_sign",
            "attributes": {
              "occlusion": "0%",
              "truncation": "0%",
              "background_color": "red"
            },
            "uuid": "15e7ee7c-ae01-434d-a0b7-54d4403d5533",
            "width": 28,
            "height": 38,
            "geometry": "box",
            "left": 535,
            "top": 591
          },
          {
            "label": "traffic_control_sign",
            "attributes": {
              "occlusion": "0%",
              "truncation": "0%",
              "background_color": "red"
            },
            "uuid": "e341eb36-7501-4413-9609-6d2244511000",
            "width": 25,
            "height": 43,
            "geometry": "box",
            "left": 647,
            "top": 613
          },
          {
            "label": "traffic_control_sign",
            "attributes": {
              "occlusion": "0%",
              "truncation": "0%",
              "background_color": "red"
            },
            "uuid": "2b0b1670-30be-4573-9fa3-c1aa9b51802a",
            "width": 34,
            "height": 59,
            "geometry": "box",
            "left": 119,
            "top": 588
          },
          {
            "label": "policy_sign",
            "attributes": {
              "occlusion": "0%",
              "truncation": "0%",
              "background_color": "white"
            },
            "uuid": "0fd6b443-d9e2-4d7d-af67-968cc78bda6f",
            "width": 40,
            "height": 27,
            "geometry": "box",
            "left": 1052,
            "top": 596
          }
        ],
        "global_attributes": {},
        "is_customer_fix": false
      },
      "customer_reviewed_by": "fieldengineering+observesign@scale.com",
      "customer_audit_time_secs": 345.923,
      "customer_audit_active_time_secs": 237.857,
      "customer_audited_at": "2021-07-24T01:22:50.488Z",
      "audits": [
        {
          "audited_by": "fieldengineering+observesign@scale.com",
          "audited_at": "2021-07-24T01:22:50.488Z",
          "audit_time_secs": 345.923,
          "audit_active_time_secs": 237.857,
          "audit_result": "rejected",
          "audit_source": "customer"
        },
        {
          "audited_by": "fieldengineering+observesign@scale.com",
          "audited_at": "2020-11-10T01:32:33.540Z",
          "audit_time_secs": 99.563,
          "audit_result": "rejected",
          "audit_source": "customer"
        }
      ],
      "projectId": "5f124e5671c7b700170a16fb",
      "updated_at": "2025-02-28T21:58:54.853Z",
      "work_started": true,
      "isProcessed": false
    }
  ],
  "total": 10,
  "offset": 0,
  "limit": 5,
  "has_more": true,
  "next_token": "eyJ0YXNrX2lkIjoiNWYxMjdmNjk5NzQwYjgwMDE3ZjliMTcwIiwiY3JlYXRlZF9hdCI6IjIwMjAtMDctMThUMDQ6NDk6NDUuNzMxWiJ9"
}